struct_id,resNum,score_type_name,score_value
4294967297,1,omega,0.064840
4294967297,1,fa_dun,2.185618
4294967297,1,fa_dun_dev,0.000027
4294967297,1,fa_dun_semi,2.185591
4294967297,1,ref,-1.191180
4294967297,2,rama,-0.795161
4294967297,2,omega,0.222345
4294967297,2,fa_dun,1.378923
4294967297,2,fa_dun_dev,0.028560
4294967297,2,fa_dun_rot,1.350362
4294967297,2,p_aa_pp,-0.442467
4294967297,2,ref,0.249477
4294967297,3,rama,0.267443
4294967297,3,omega,0.005106
4294967297,3,fa_dun,0.020352
4294967297,3,fa_dun_dev,0.025507
4294967297,3,fa_dun_rot,-0.005156
4294967297,3,p_aa_pp,-0.096847
4294967297,3,ref,0.979644
4294967297,4,rama,-1.403292
4294967297,4,omega,0.212160
4294967297,4,fa_dun,4.218029
4294967297,4,fa_dun_dev,0.003712
4294967297,4,fa_dun_semi,4.214317
4294967297,4,p_aa_pp,-0.462765
4294967297,4,ref,-1.960940
4294967297,5,rama,-0.600053
4294967297,5,omega,0.061867
4294967297,5,fa_dun,3.663050
4294967297,5,fa_dun_dev,0.004953
